%YAML 1.1
%TAG !u! tag:unity3d.com,2011:
--- !u!1045 &1
EditorBuildSettings:
  m_ObjectHideFlags: 0
  serializedVersion: 2
  m_Scenes:
  - enabled: 0
    path: Assets/Scenes/LookAndFeelTests.unity
  - enabled: 0
    path: Assets/Scenes/SlopesTests.unity
  - enabled: 0
    path: Assets/Scenes/HorizontalOffset.unity
  - enabled: 1
    path: Assets/Scenes/Prototype Levels/Level 1.unity
  - enabled: 1
    path: Assets/Scenes/Prototype Levels/Level 2.unity
  - enabled: 1
    path: Assets/Scenes/Prototype Levels/Level 3.unity
  - enabled: 1
    path: Assets/Scenes/Prototype Levels/Level 4.unity
  - enabled: 1
    path: Assets/Scenes/Prototype Levels/Level 5.unity
  - enabled: 1
    path: Assets/Scenes/Prototype Levels/Level7.unity
  - enabled: 1
    path: Assets/Scenes/Prototype Levels/Level8.unity
  - enabled: 1
    path: Assets/Scenes/Prototype Levels/Level9.unity
  - enabled: 1
    path: Assets/Scenes/Prototype Levels/Scene10.unity
